LUAD
…
Now lets take a closer look at to the missing values with tables.

# Get number of missings per variable (n and %)
miss_var_summary(data_new)

## # A tibble: 26 x 3
##    variable               n_miss pct_miss
##    <chr>                   <int>    <dbl>
##  1 year_of_death             399    76.4 
##  2 days_to_death             338    64.8 
##  3 years_smoked              328    62.8 
##  4 cigarettes_per_day        166    31.8 
##  5 days_to_last_follow_up    127    24.3 
##  6 ethnicity                 126    24.1 
##  7 race                       67    12.8 
##  8 age_at_diagnosis           31     5.94
##  9 days_to_birth              31     5.94
## 10 year_of_birth              19     3.64
## # ... with 16 more rows
…
